index
…
Esto lo hacemos porque es recomendable no nombrar las columnas como números sino que como un texto.

Podemos ver que ahora cada producto se repite sólo una vez en la primera columna y las ventas de cada producto se han extendido para cada año, convirtiéndose en columnas separadas.

Esta estructura de datos es más ancha pero más fácil de interpretar que en su formato long.

Ejercicio 1

Cargue la librería “datos” y almacene el dataframe “encuesta” como “encuesta”.

Agrupe el dataframe encuesta por las variables “anio” e “ingreso” y, usando un summarise(), calcule las horas_tv promedio usando la función mean(). Llame a esta variable “horas_prom”. Almacene el dataframe resultante como “encuesta_agrupado”. Nota: recuerde usar el argumento na.rm = TRUE para que no considere los valores NA.

La tabla debería verse así:

# A tibble: 125 × 3
# Groups:   anio [8]
    anio ingreso              horas_prom
   <int> <fct>                     <dbl>
 1  2000 Sin respuesta              2.33
 2  2000 No sabe                    4.05
 3  2000 Se niega a responder       2.49
 4  2000 25000 o más                2.26
 5  2000 20000 - 24999              2.65
 6  2000 15000 - 19999              2.85
 7  2000 10000 - 14999              2.65
 8  2000 8000 - 9999                3.27
 9  2000 7000 - 7999                2.78
10  2000 6000 - 6999                2.96
# ℹ 115 more rows
…
Cargue la librería “datos” y almacene el dataframe “encuesta” como “encuesta”.

library(datos)
encuesta <- encuesta

Solución ejercicio 1

Agrupe el dataframe encuesta por las variables “anio” e “ingreso” y, usando un summarise(), calcule las horas_tv promedio usando la función mean(). Llame a esta variable “horas_prom”. Almacene el dataframe resultante como “encuesta_agrupado”. Nota: recuerde usar el argumento na.rm = TRUE para que no considere los valores NA.

encuesta_agrupado <- encuesta %>% 
  group_by(anio, ingreso) %>% 
  summarise(horas_prom = mean(horas_tv, na.rm = TRUE)) 
encuesta_agrupado

# A tibble: 125 × 3
# Groups:   anio [8]
    anio ingreso              horas_prom
   <int> <fct>                     <dbl>
 1  2000 Sin respuesta              2.33
 2  2000 No sabe                    4.05
 3  2000 Se niega a responder       2.49
 4  2000 25000 o más                2.26
 5  2000 20000 - 24999              2.65
 6  2000 15000 - 19999              2.85
 7  2000 10000 - 14999              2.65
 8  2000 8000 - 9999                3.27
 9  2000 7000 - 7999                2.78
10  2000 6000 - 6999                2.96
# ℹ 115 more rows
…
Solución ejercicio 1

Transforme el dataframe “encuesta_wide” a su estructura original, es decir, en formato long usando pivot_longer(). El dataframe resultante debe ser igual a “encuesta_agrupado”. Almacene este dataframe como “encuesta_long”.

encuesta_long <- encuesta_wide %>% 
  pivot_longer(cols = -anio, names_to = "ingreso", values_to = "horas_prom")
encuesta_long

# A tibble: 128 × 3
# Groups:   anio [8]
    anio ingreso              horas_prom
   <int> <chr>                     <dbl>
 1  2000 Sin respuesta              2.33
 2  2000 No sabe                    4.05
 3  2000 Se niega a responder       2.49
 4  2000 25000 o más                2.26
 5  2000 20000 - 24999              2.65
 6  2000 15000 - 19999              2.85
 7  2000 10000 - 14999              2.65
 8  2000 8000 - 9999                3.27
 9  2000 7000 - 7999                2.78
10  2000 6000 - 6999                2.96
# ℹ 118 more rows
…
Instale y cargue el paquete “nycflights13”.

#install.packages("nycflights13")
library(nycflights13)

Solución ejercicio 2

Sobrescriba el dataframe “flights” seleccionando las columnas “time_hour”, “origin”, “dest”, “tailnum” y “carrier”.

flights <- flights %>% 
  select(time_hour, origin, dest, tailnum, carrier)
flights

# A tibble: 336,776 × 5
   time_hour           origin dest  tailnum carrier
   <dttm>              <chr>  <chr> <chr>   <chr>  
 1 2013-01-01 05:00:00 EWR    IAH   N14228  UA     
 2 2013-01-01 05:00:00 LGA    IAH   N24211  UA     
 3 2013-01-01 05:00:00 JFK    MIA   N619AA  AA     
 4 2013-01-01 05:00:00 JFK    BQN   N804JB  B6     
 5 2013-01-01 06:00:00 LGA    ATL   N668DN  DL     
 6 2013-01-01 05:00:00 EWR    ORD   N39463  UA     
 7 2013-01-01 06:00:00 EWR    FLL   N516JB  B6     
 8 2013-01-01 06:00:00 LGA    IAD   N829AS  EV     
 9 2013-01-01 06:00:00 JFK    MCO   N593JB  B6     
10 2013-01-01 06:00:00 LGA    ORD   N3ALAA  AA     
# ℹ 336,766 more rows

Solución ejercicio 2

Haga un left_join entre “flights” y “airlines” usando la llave correspondiente.

flights %>% 
  left_join(airlines, by = "carrier")

# A tibble: 336,776 × 6
   time_hour           origin dest  tailnum carrier name                    
   <dttm>              <chr>  <chr> <chr>   <chr>   <chr>                   
 1 2013-01-01 05:00:00 EWR    IAH   N14228  UA      United Air Lines Inc.   
 2 2013-01-01 05:00:00 LGA    IAH   N24211  UA      United Air Lines Inc.   
 3 2013-01-01 05:00:00 JFK    MIA   N619AA  AA      American Airlines Inc.  
 4 2013-01-01 05:00:00 JFK    BQN   N804JB  B6      JetBlue Airways         
 5 2013-01-01 06:00:00 LGA    ATL   N668DN  DL      Delta Air Lines Inc.    
 6 2013-01-01 05:00:00 EWR    ORD   N39463  UA      United Air Lines Inc.   
 7 2013-01-01 06:00:00 EWR    FLL   N516JB  B6      JetBlue Airways         
 8 2013-01-01 06:00:00 LGA    IAD   N829AS  EV      ExpressJet Airlines Inc.
 9 2013-01-01 06:00:00 JFK    MCO   N593JB  B6      JetBlue Airways         
10 2013-01-01 06:00:00 LGA    ORD   N3ALAA  AA      American Airlines Inc.  
# ℹ 336,766 more rows

Solución ejercicio 2

Haga un left_join entre “flights” y “planes” usando la llave correspondiente.

flights %>% 
  left_join(planes, by = "tailnum")

# A tibble: 336,776 × 13
   time_hour           origin dest  tailnum carrier  year type      manufacturer
   <dttm>              <chr>  <chr> <chr>   <chr>   <int> <chr>     <chr>       
 1 2013-01-01 05:00:00 EWR    IAH   N14228  UA       1999 Fixed wi… BOEING      
 2 2013-01-01 05:00:00 LGA    IAH   N24211  UA       1998 Fixed wi… BOEING      
 3 2013-01-01 05:00:00 JFK    MIA   N619AA  AA       1990 Fixed wi… BOEING      
 4 2013-01-01 05:00:00 JFK    BQN   N804JB  B6       2012 Fixed wi… AIRBUS      
 5 2013-01-01 06:00:00 LGA    ATL   N668DN  DL       1991 Fixed wi… BOEING      
 6 2013-01-01 05:00:00 EWR    ORD   N39463  UA       2012 Fixed wi… BOEING      
 7 2013-01-01 06:00:00 EWR    FLL   N516JB  B6       2000 Fixed wi… AIRBUS INDU…
 8 2013-01-01 06:00:00 LGA    IAD   N829AS  EV       1998 Fixed wi… CANADAIR    
 9 2013-01-01 06:00:00 JFK    MCO   N593JB  B6       2004 Fixed wi… AIRBUS      
10 2013-01-01 06:00:00 LGA    ORD   N3ALAA  AA         NA <NA>      <NA>        
# ℹ 336,766 more rows
# ℹ 5 more variables: model <chr>, engines <int>, seats <int>, speed <int>,
#   engine <chr>

Acá podemos ver que el código de cola o tailnum N3ALAA tiene NA en las columnas que se pegaron porque no hay información acerca del avión con ese código de cola, es decir no hubo match, entonces esos valores se reemplazan por NA

Solución ejercicio 2

Haga un left_join entre “flights” y “weather” usando las llaves correspondientes.

flights %>% 
  left_join(weather, by = c("time_hour", "origin"))

# A tibble: 336,776 × 18
   time_hour           origin dest  tailnum carrier  year month   day  hour
   <dttm>              <chr>  <chr> <chr>   <chr>   <int> <int> <int> <int>
 1 2013-01-01 05:00:00 EWR    IAH   N14228  UA       2013     1     1     5
 2 2013-01-01 05:00:00 LGA    IAH   N24211  UA       2013     1     1     5
 3 2013-01-01 05:00:00 JFK    MIA   N619AA  AA       2013     1     1     5
 4 2013-01-01 05:00:00 JFK    BQN   N804JB  B6       2013     1     1     5
 5 2013-01-01 06:00:00 LGA    ATL   N668DN  DL       2013     1     1     6
 6 2013-01-01 05:00:00 EWR    ORD   N39463  UA       2013     1     1     5
 7 2013-01-01 06:00:00 EWR    FLL   N516JB  B6       2013     1     1     6
 8 2013-01-01 06:00:00 LGA    IAD   N829AS  EV       2013     1     1     6
 9 2013-01-01 06:00:00 JFK    MCO   N593JB  B6       2013     1     1     6
10 2013-01-01 06:00:00 LGA    ORD   N3ALAA  AA       2013     1     1     6
# ℹ 336,766 more rows
# ℹ 9 more variables: temp <dbl>, dewp <dbl>, humid <dbl>, wind_dir <dbl>,
#   wind_speed <dbl>, wind_gust <dbl>, precip <dbl>, pressure <dbl>,
#   visib <dbl>

Solución ejercicio 2

Haga un anti_join entre “flights” y “planes” usando la llave correspondiente.

flights %>% 
  anti_join(planes, by = "tailnum")

# A tibble: 52,606 × 5
   time_hour           origin dest  tailnum carrier
   <dttm>              <chr>  <chr> <chr>   <chr>  
 1 2013-01-01 06:00:00 LGA    ORD   N3ALAA  AA     
 2 2013-01-01 06:00:00 LGA    DFW   N3DUAA  AA     
 3 2013-01-01 06:00:00 LGA    ATL   N542MQ  MQ     
 4 2013-01-01 06:00:00 LGA    DTW   N730MQ  MQ     
 5 2013-01-01 06:00:00 EWR    ORD   N9EAMQ  MQ     
 6 2013-01-01 06:00:00 JFK    SFO   N532UA  UA     
 7 2013-01-01 06:00:00 LGA    MIA   N3EMAA  AA     
 8 2013-01-01 06:00:00 LGA    MSP   N518MQ  MQ     
 9 2013-01-01 06:00:00 JFK    SJU   N3BAAA  AA     
10 2013-01-01 06:00:00 LGA    ORD   N3CYAA  AA     
# ℹ 52,596 more rows
…
